Reference/Week1/week1/week1.sim/sim_1/behav/xsim/simulate.log
Time resolution is 1 ps
[PASS] a =   1, b =   1, product =     1
[PASS] a =   1, b =   2, product =     2
[PASS] a =   1, b =   3, product =     3
[PASS] a =   1, b =   4, product =     4
[PASS] a =   1, b =   5, product =     5
[PASS] a =   1, b =   6, product =     6
[PASS] a =   1, b =   7, product =     7
[PASS] a =   1, b =   8, product =     8
[PASS] a =   1, b =   9, product =     9
[PASS] a =   1, b =  10, product =    10
[PASS] a =   2, b =   1, product =     2
[PASS] a =   2, b =   2, product =     4
[PASS] a =   2, b =   3, product =     6
[PASS] a =   2, b =   4, product =     8
[PASS] a =   2, b =   5, product =    10
[PASS] a =   2, b =   6, product =    12
[PASS] a =   2, b =   7, product =    14
[PASS] a =   2, b =   8, product =    16
[PASS] a =   2, b =   9, product =    18
[PASS] a =   2, b =  10, product =    20
[PASS] a =   3, b =   1, product =     3
[PASS] a =   3, b =   2, product =     6
[PASS] a =   3, b =   3, product =     9
[PASS] a =   3, b =   4, product =    12
[PASS] a =   3, b =   5, product =    15
[PASS] a =   3, b =   6, product =    18
[PASS] a =   3, b =   7, product =    21
[PASS] a =   3, b =   8, product =    24
[PASS] a =   3, b =   9, product =    27
[PASS] a =   3, b =  10, product =    30
[PASS] a =   4, b =   1, product =     4
[PASS] a =   4, b =   2, product =     8
[PASS] a =   4, b =   3, product =    12
[PASS] a =   4, b =   4, product =    16
[PASS] a =   4, b =   5, product =    20
[PASS] a =   4, b =   6, product =    24
[PASS] a =   4, b =   7, product =    28
[PASS] a =   4, b =   8, product =    32
[PASS] a =   4, b =   9, product =    36
[PASS] a =   4, b =  10, product =    40
[PASS] a =   5, b =   1, product =     5
[PASS] a =   5, b =   2, product =    10
[PASS] a =   5, b =   3, product =    15
[PASS] a =   5, b =   4, product =    20
[PASS] a =   5, b =   5, product =    25
[PASS] a =   5, b =   6, product =    30
[PASS] a =   5, b =   7, product =    35
[PASS] a =   5, b =   8, product =    40
[PASS] a =   5, b =   9, product =    45
[PASS] a =   5, b =  10, product =    50
[PASS] a =   6, b =   1, product =     6
[PASS] a =   6, b =   2, product =    12
[PASS] a =   6, b =   3, product =    18
[PASS] a =   6, b =   4, product =    24
[PASS] a =   6, b =   5, product =    30
[PASS] a =   6, b =   6, product =    36
[PASS] a =   6, b =   7, product =    42
[PASS] a =   6, b =   8, product =    48
[PASS] a =   6, b =   9, product =    54
[PASS] a =   6, b =  10, product =    60
[PASS] a =   7, b =   1, product =     7
[PASS] a =   7, b =   2, product =    14
[PASS] a =   7, b =   3, product =    21
[PASS] a =   7, b =   4, product =    28
[PASS] a =   7, b =   5, product =    35
[PASS] a =   7, b =   6, product =    42
[PASS] a =   7, b =   7, product =    49
[PASS] a =   7, b =   8, product =    56
[PASS] a =   7, b =   9, product =    63
[PASS] a =   7, b =  10, product =    70
[PASS] a =   8, b =   1, product =     8
[PASS] a =   8, b =   2, product =    16
[PASS] a =   8, b =   3, product =    24
[PASS] a =   8, b =   4, product =    32
[PASS] a =   8, b =   5, product =    40
[PASS] a =   8, b =   6, product =    48
[PASS] a =   8, b =   7, product =    56
[PASS] a =   8, b =   8, product =    64
[PASS] a =   8, b =   9, product =    72
[PASS] a =   8, b =  10, product =    80
[PASS] a =   9, b =   1, product =     9
[PASS] a =   9, b =   2, product =    18
[PASS] a =   9, b =   3, product =    27
[PASS] a =   9, b =   4, product =    36
[PASS] a =   9, b =   5, product =    45
[PASS] a =   9, b =   6, product =    54
[PASS] a =   9, b =   7, product =    63
[PASS] a =   9, b =   8, product =    72
[PASS] a =   9, b =   9, product =    81
[PASS] a =   9, b =  10, product =    90
[PASS] a =  10, b =   1, product =    10
[PASS] a =  10, b =   2, product =    20
[PASS] a =  10, b =   3, product =    30
[PASS] a =  10, b =   4, product =    40
[PASS] a =  10, b =   5, product =    50
[PASS] a =  10, b =   6, product =    60
[PASS] a =  10, b =   7, product =    70
[PASS] a =  10, b =   8, product =    80
[PASS] a =  10, b =   9, product =    90
[PASS] a =  10, b =  10, product =   100

Success: 100
Fail:0

$finish called at time : 500 ns : File "C:/Users/Jihoon Lee/Desktop/commento/commento_fpga_material/Reference/Week1/week1/week1.srcs/sources_1/new/tb_multiplier.sv" Line 50
